…
| Type        | Source | Command                                            |
|-------------|--------|----------------------------------------------------|
| Release     | CRAN   | `install.packages("ipmisc")`                       |
| Development | GitHub | `remotes::install_github("IndrajeetPatil/ipmisc")` |

# Functions

Function to convert a tidy data to wide data:

``` r
library(ipmisc)

long_to_wide_converter(bugs_long, condition, desire, paired = TRUE)
#> # A tibble: 88 x 5
#>    rowid  HDHF  HDLF  LDHF  LDLF
#>    <int> <dbl> <dbl> <dbl> <dbl>
#>  1     1  10     9     6     6  
#>  2     3  10    10    10     5  
#>  3     4   9     6     9     6  
#>  4     5   8.5   5.5   6.5   3  
#>  5     6   3     7.5   0.5   2  
#>  6     7  10    10    10    10  
#>  7     8  10     9    10    10  
#>  8     9  10     6     9.5   9.5
#>  9    11   0     0     2.5   0  
#> 10    12  10     8.5   7.5   9.5
#> # … with 78 more rows
```
…
